%YAML 1.1
%TAG !u! tag:unity3d.com,2011:
--- !u!114 &11400000
MonoBehaviour:
  m_ObjectHideFlags: 0
  m_CorrespondingSourceObject: {fileID: 0}
  m_PrefabInstance: {fileID: 0}
  m_PrefabAsset: {fileID: 0}
  m_GameObject: {fileID: 0}
  m_Enabled: 1
  m_EditorHideFlags: 0
  m_Script: {fileID: 11500000, guid: 912bdcc817ed45c47acd5fc93ee0af34, type: 3}
  m_Name: 22A2A5F4-9A0D-419D-AF20-6B695EA5F984
  m_EditorClassIdentifier: 
  objectName: footstep
  id: 1866025847
  guid: 22A2A5F4-9A0D-419D-AF20-6B695EA5F984
